EMP_ID;CONTRIBUTION_START_DATE;CONTRIBUTION_END_DATE;CONTRIBUTION_MODIFY_DATE;CONTRIBUTION_RATE_OLD;CONTRIBUTION_RATE_NEW
1111111;2016-02-01;9999-12-31;2016-01-13;9;10
2222222;2016-02-01;9999-12-31;2016-01-13;10;11
3333333;2016-02-01;9999-12-31;2016-01-13;10;11
4444444;2016-02-01;9999-12-31;2016-01-13;9;10
5555555;2016-02-01;9999-12-31;2016-01-13;9;10
6666666;2016-02-01;9999-12-31;2016-01-13;9;10
7777777;2016-02-01;9999-12-31;2016-01-13;10;11
